               epoch,      train/box_loss,      train/obj_loss,      train/cls_loss,   metrics/precision,      metrics/recall,     metrics/mAP_0.5,metrics/mAP_0.5:0.95,        val/box_loss,        val/obj_loss,        val/cls_loss,               x/lr0,               x/lr1,               x/lr2
                   0,             0.12095,             0.13517,            0.031399,             0.81729,            0.029302,           0.0095018,            0.001962,             0.10657,             0.31023,            0.019049,            0.003268,            0.003268,            0.070588
                   1,             0.10608,             0.14466,            0.015325,             0.27622,              0.2052,            0.058677,            0.013494,            0.096658,             0.19758,           0.0099798,           0.0065795,           0.0065795,            0.040566
                   2,             0.10052,             0.14054,           0.0092431,             0.39077,               0.157,            0.095136,            0.025031,            0.092301,             0.19677,              0.0114,           0.0098691,           0.0098691,            0.010523
                   3,             0.09553,             0.14079,           0.0079569,             0.18742,             0.28297,             0.15725,            0.044252,            0.086537,             0.18103,           0.0095862,            0.009901,            0.009901,            0.009901
                   4,            0.092228,             0.13738,           0.0065778,             0.23681,             0.25275,             0.17644,            0.056164,            0.084155,             0.17482,             0.01003,            0.009901,            0.009901,            0.009901
                   5,            0.091179,             0.13696,           0.0060497,             0.33294,             0.26952,              0.2255,            0.075566,            0.083016,             0.15861,           0.0067555,            0.009868,            0.009868,            0.009868
                   6,            0.089931,             0.13664,           0.0052361,             0.29637,             0.25698,             0.18583,             0.05982,            0.083358,             0.17194,           0.0075985,            0.009835,            0.009835,            0.009835
                   7,            0.088596,             0.13524,           0.0053214,             0.30062,             0.25448,             0.20328,            0.067116,            0.083014,             0.16437,           0.0069354,            0.009802,            0.009802,            0.009802
                   8,            0.087496,             0.13431,            0.004857,             0.38164,             0.26586,             0.23289,            0.081294,             0.08119,             0.16334,           0.0064566,            0.009769,            0.009769,            0.009769
                   9,             0.08776,             0.13495,           0.0048676,             0.39622,             0.28213,             0.24951,            0.086754,             0.08019,               0.166,           0.0095983,            0.009736,            0.009736,            0.009736
                  10,            0.087212,              0.1346,           0.0044558,             0.39794,             0.25666,             0.21286,            0.073671,             0.08104,             0.18697,           0.0092331,            0.009703,            0.009703,            0.009703
                  11,             0.08664,             0.13238,           0.0042377,              0.3843,             0.27432,             0.22507,            0.078874,            0.081128,             0.17375,           0.0077055,             0.00967,             0.00967,             0.00967
                  12,            0.086002,             0.13314,           0.0044086,             0.43001,             0.28791,             0.26052,            0.091707,            0.080026,             0.16369,           0.0060712,            0.009637,            0.009637,            0.009637
                  13,            0.085387,             0.13311,           0.0042152,             0.38433,             0.28686,             0.22702,            0.082795,            0.080401,             0.16844,            0.009509,            0.009604,            0.009604,            0.009604
                  14,            0.085553,             0.12988,           0.0042402,             0.38107,             0.29583,             0.26116,             0.09201,            0.079183,             0.16322,           0.0059305,            0.009571,            0.009571,            0.009571
                  15,            0.085278,             0.13013,           0.0040941,             0.34993,             0.29923,             0.24723,            0.092485,            0.079148,             0.16915,           0.0063641,            0.009538,            0.009538,            0.009538
                  16,            0.085606,             0.13087,           0.0041435,             0.38209,             0.29705,             0.23805,            0.085353,            0.080656,             0.17124,           0.0064083,            0.009505,            0.009505,            0.009505
                  17,            0.083994,             0.12883,            0.004362,             0.41776,              0.2827,             0.26498,            0.097898,            0.080507,             0.17245,            0.009001,            0.009472,            0.009472,            0.009472
                  18,            0.084387,             0.12917,           0.0038938,             0.41885,             0.30557,             0.26153,            0.094033,            0.079501,              0.1719,           0.0071497,            0.009439,            0.009439,            0.009439
                  19,            0.084303,              0.1311,           0.0039083,             0.50988,              0.2837,             0.28792,             0.10491,            0.078529,             0.16827,           0.0060913,            0.009406,            0.009406,            0.009406
                  20,            0.083978,             0.12782,           0.0038479,             0.35621,             0.31857,              0.2544,            0.094714,            0.078674,             0.16917,           0.0075527,            0.009373,            0.009373,            0.009373
                  21,            0.083935,             0.12732,           0.0036985,             0.39156,             0.28907,             0.24088,            0.089309,            0.078972,             0.17213,           0.0087748,             0.00934,             0.00934,             0.00934
                  22,            0.082766,             0.12844,           0.0036889,             0.37349,             0.29261,             0.24157,            0.090697,            0.079165,              0.1696,            0.010717,            0.009307,            0.009307,            0.009307
                  23,             0.08316,               0.126,           0.0035277,             0.44591,             0.27518,             0.27297,             0.10391,            0.078362,             0.16154,           0.0065094,            0.009274,            0.009274,            0.009274
                  24,             0.08329,             0.12904,           0.0036229,             0.31991,             0.32053,             0.22845,            0.084437,            0.080425,             0.18906,           0.0078198,            0.009241,            0.009241,            0.009241
                  25,            0.082946,             0.12628,           0.0037064,             0.42217,             0.30636,             0.27886,             0.10924,            0.078294,             0.16495,           0.0075173,            0.009208,            0.009208,            0.009208
                  26,            0.083236,             0.12703,           0.0032651,             0.44277,             0.29476,             0.27233,             0.10597,            0.078403,             0.17066,           0.0087195,            0.009175,            0.009175,            0.009175
                  27,            0.082949,             0.12623,           0.0031624,             0.38129,             0.33508,             0.27237,             0.10173,             0.07817,             0.16291,           0.0079926,            0.009142,            0.009142,            0.009142
                  28,            0.083539,             0.12764,           0.0035665,             0.37711,             0.29598,             0.24205,            0.087853,            0.079033,             0.16758,           0.0076374,            0.009109,            0.009109,            0.009109
                  29,            0.082659,              0.1288,           0.0033197,             0.33764,             0.29048,             0.23758,            0.088176,            0.078667,             0.18069,            0.007325,            0.009076,            0.009076,            0.009076
                  30,             0.08232,             0.12693,           0.0036857,             0.38611,             0.25708,             0.22129,            0.082864,            0.079151,             0.17186,            0.006689,            0.009043,            0.009043,            0.009043
                  31,            0.082692,             0.12763,           0.0034778,             0.42354,             0.31402,             0.26254,            0.099227,            0.079198,             0.17616,           0.0085692,             0.00901,             0.00901,             0.00901
                  32,            0.081927,             0.12233,           0.0031752,             0.40343,             0.30519,             0.26071,             0.10032,            0.079372,             0.17734,           0.0072425,            0.008977,            0.008977,            0.008977
                  33,            0.082016,             0.12552,           0.0032217,             0.39623,             0.31886,             0.25894,             0.09707,            0.079001,             0.17124,           0.0084724,            0.008944,            0.008944,            0.008944
                  34,            0.081791,             0.12445,           0.0035766,             0.48001,             0.27357,             0.27809,              0.1047,            0.078073,             0.16606,           0.0071967,            0.008911,            0.008911,            0.008911
                  35,            0.082092,             0.12579,           0.0030727,             0.43653,             0.28837,             0.26839,              0.1039,            0.077961,             0.17435,           0.0065519,            0.008878,            0.008878,            0.008878
                  36,             0.08142,             0.12382,           0.0030184,             0.42049,             0.31001,             0.28538,             0.10795,            0.078422,             0.17145,           0.0062982,            0.008845,            0.008845,            0.008845
                  37,            0.081596,              0.1242,           0.0032622,             0.40134,             0.32081,             0.26747,             0.10378,            0.078133,             0.17079,           0.0071505,            0.008812,            0.008812,            0.008812
                  38,            0.081372,              0.1234,            0.003204,             0.44258,             0.27066,             0.25202,            0.097102,            0.079298,             0.17825,           0.0078312,            0.008779,            0.008779,            0.008779
                  39,            0.081426,             0.12399,           0.0032883,             0.38353,              0.3183,             0.26577,             0.10196,            0.078537,             0.16741,           0.0057309,            0.008746,            0.008746,            0.008746
                  40,            0.081702,             0.12417,           0.0030893,             0.40148,             0.30892,             0.25737,            0.096902,            0.078628,             0.16887,            0.007928,            0.008713,            0.008713,            0.008713
                  41,            0.081047,             0.12172,           0.0032485,             0.44897,             0.30728,             0.29433,                0.11,            0.078179,              0.1675,           0.0071024,             0.00868,             0.00868,             0.00868
                  42,            0.081551,              0.1264,           0.0029321,             0.42746,              0.2833,             0.24932,            0.095223,            0.078811,             0.17631,           0.0086132,            0.008647,            0.008647,            0.008647
                  43,            0.080899,             0.12233,           0.0029783,             0.44069,             0.24862,             0.22264,            0.084114,            0.079559,              0.1857,           0.0096731,            0.008614,            0.008614,            0.008614
                  44,            0.080356,             0.12098,           0.0031492,             0.36731,             0.34789,             0.28146,             0.10472,            0.079661,             0.17177,           0.0055797,            0.008581,            0.008581,            0.008581
                  45,            0.079991,             0.12156,           0.0030416,             0.41909,             0.30681,             0.26189,             0.10172,            0.079099,             0.17377,            0.010793,            0.008548,            0.008548,            0.008548
                  46,            0.080402,             0.12094,           0.0029146,             0.39251,              0.2989,             0.24993,            0.095525,            0.079596,             0.18366,           0.0083653,            0.008515,            0.008515,            0.008515
                  47,             0.08068,              0.1218,           0.0031251,             0.39796,             0.33341,             0.27769,             0.11006,             0.07824,             0.17357,           0.0066955,            0.008482,            0.008482,            0.008482
                  48,            0.080117,             0.12093,            0.002921,             0.44412,             0.28429,             0.27353,             0.10069,            0.078428,             0.17011,           0.0061263,            0.008449,            0.008449,            0.008449
                  49,             0.08018,             0.11987,           0.0028255,             0.43814,             0.31467,             0.27555,             0.11017,            0.078573,             0.17282,             0.01093,            0.008416,            0.008416,            0.008416
                  50,            0.080038,             0.12131,           0.0030135,             0.41789,             0.29526,             0.25145,            0.099184,            0.079168,             0.18294,           0.0082167,            0.008383,            0.008383,            0.008383
                  51,            0.080487,              0.1207,           0.0027477,             0.43047,             0.30614,             0.26861,             0.10146,            0.078957,             0.17498,           0.0085847,             0.00835,             0.00835,             0.00835
                  52,            0.079521,             0.11972,           0.0028637,             0.41629,               0.321,             0.29309,              0.1116,            0.079018,             0.16588,           0.0056657,            0.008317,            0.008317,            0.008317
                  53,             0.08056,              0.1215,           0.0030081,             0.39331,             0.27198,              0.2393,            0.087914,            0.080306,             0.18767,           0.0086598,            0.008284,            0.008284,            0.008284
                  54,            0.080347,             0.12261,           0.0029002,             0.43115,             0.28763,             0.26224,             0.10102,            0.079624,             0.18301,           0.0065744,            0.008251,            0.008251,            0.008251
                  55,             0.07971,             0.12138,           0.0027444,             0.41595,             0.32198,             0.28476,             0.10907,            0.078774,              0.1704,           0.0070437,            0.008218,            0.008218,            0.008218
                  56,            0.080121,             0.12194,           0.0030422,             0.45311,             0.28286,              0.2662,             0.10388,            0.079518,             0.18274,           0.0089361,            0.008185,            0.008185,            0.008185
                  57,            0.079878,             0.12012,           0.0029524,             0.40157,             0.30505,             0.25495,            0.098329,            0.079686,             0.18146,           0.0091082,            0.008152,            0.008152,            0.008152
                  58,            0.079537,             0.11889,           0.0026758,             0.44784,             0.32691,             0.29072,             0.10797,            0.077968,             0.17089,            0.006096,            0.008119,            0.008119,            0.008119
                  59,            0.080473,             0.12025,           0.0028515,             0.41053,              0.3018,             0.26197,              0.1047,            0.079332,              0.1833,           0.0097255,            0.008086,            0.008086,            0.008086
                  60,            0.079932,             0.11984,           0.0028503,             0.42977,             0.24545,             0.23789,            0.092038,            0.079709,             0.17769,           0.0080672,            0.008053,            0.008053,            0.008053
                  61,            0.079395,              0.1207,           0.0029909,             0.40321,             0.30295,             0.26727,             0.10384,            0.078775,             0.17514,           0.0083189,             0.00802,             0.00802,             0.00802
                  62,            0.080263,             0.12333,           0.0030491,             0.47967,             0.29388,             0.28617,             0.11314,            0.078572,             0.17932,           0.0065859,            0.007987,            0.007987,            0.007987
                  63,            0.079824,             0.12078,           0.0029353,             0.42614,             0.34408,             0.30804,             0.12123,            0.078526,             0.17311,            0.005679,            0.007954,            0.007954,            0.007954
                  64,            0.079351,             0.11965,           0.0029293,             0.48333,             0.30836,             0.29276,             0.11832,            0.078308,             0.17394,           0.0069802,            0.007921,            0.007921,            0.007921
                  65,            0.079323,             0.11713,           0.0027607,             0.41559,             0.32568,             0.28836,             0.11029,            0.078401,             0.17346,           0.0070215,            0.007888,            0.007888,            0.007888
                  66,            0.079437,             0.11987,           0.0026312,             0.40737,             0.30478,             0.25955,             0.10133,            0.078774,             0.18265,           0.0073832,            0.007855,            0.007855,            0.007855
                  67,            0.079581,             0.12042,           0.0027971,             0.46037,             0.27956,             0.25537,            0.098087,            0.080049,             0.18392,           0.0061179,            0.007822,            0.007822,            0.007822
                  68,            0.079621,             0.12011,           0.0027596,              0.4532,             0.29743,             0.27715,             0.10835,            0.078253,             0.17543,           0.0073955,            0.007789,            0.007789,            0.007789
                  69,            0.079277,             0.11737,            0.002684,             0.42724,             0.26477,             0.23959,            0.092571,             0.07906,             0.18214,           0.0071572,            0.007756,            0.007756,            0.007756
                  70,            0.078604,             0.11684,           0.0026457,             0.44856,             0.30097,             0.27837,             0.10719,            0.078784,             0.17759,           0.0078647,            0.007723,            0.007723,            0.007723
                  71,             0.07923,             0.11893,           0.0028358,             0.43332,             0.29806,             0.27395,             0.10622,            0.078456,             0.17666,           0.0081193,             0.00769,             0.00769,             0.00769
                  72,            0.079676,             0.11923,           0.0027123,             0.44836,             0.29005,             0.27407,             0.10973,            0.078395,             0.17454,           0.0074048,            0.007657,            0.007657,            0.007657
                  73,            0.078685,             0.11785,           0.0027805,             0.42935,             0.30346,             0.27732,             0.10895,            0.079086,             0.17911,           0.0079917,            0.007624,            0.007624,            0.007624
                  74,            0.079194,             0.11684,           0.0025505,             0.48818,             0.29805,             0.28123,             0.11239,            0.078619,             0.17224,           0.0070824,            0.007591,            0.007591,            0.007591
                  75,            0.078769,             0.11948,           0.0026688,             0.42619,             0.30733,             0.27156,             0.10715,            0.078907,             0.18101,           0.0083512,            0.007558,            0.007558,            0.007558
                  76,            0.078777,             0.11686,           0.0026917,             0.46645,             0.31162,             0.29699,             0.12012,            0.079017,             0.18497,           0.0081005,            0.007525,            0.007525,            0.007525
                  77,            0.078818,             0.11818,           0.0028677,             0.45888,             0.29378,             0.28911,             0.11193,            0.078882,             0.18058,           0.0075671,            0.007492,            0.007492,            0.007492
                  78,            0.078032,             0.11693,           0.0025124,               0.407,             0.30034,             0.26491,             0.10088,            0.079878,             0.18562,            0.007762,            0.007459,            0.007459,            0.007459
                  79,            0.078773,             0.11792,           0.0027148,             0.37517,             0.31938,             0.25327,             0.10023,             0.07895,             0.18124,           0.0094271,            0.007426,            0.007426,            0.007426
                  80,            0.078675,             0.11581,           0.0026075,             0.47028,             0.28696,             0.28549,             0.11387,            0.078884,             0.18025,            0.011288,            0.007393,            0.007393,            0.007393
                  81,            0.078464,             0.11954,           0.0025797,             0.49607,             0.29827,             0.29333,             0.11587,            0.078113,             0.17318,           0.0073959,             0.00736,             0.00736,             0.00736
                  82,            0.079341,             0.11932,           0.0026511,             0.47041,             0.27811,             0.27509,             0.10846,            0.078994,              0.1858,           0.0092434,            0.007327,            0.007327,            0.007327
                  83,            0.078987,             0.11624,           0.0028793,             0.43868,             0.31002,             0.28012,             0.11042,            0.078628,             0.17821,           0.0076582,            0.007294,            0.007294,            0.007294
                  84,            0.078646,             0.11757,           0.0028806,              0.4133,             0.29866,             0.25388,            0.097693,            0.080029,              0.1805,             0.01025,            0.007261,            0.007261,            0.007261
                  85,            0.078425,             0.11862,           0.0025402,             0.44091,             0.30731,             0.26913,              0.1055,            0.079166,             0.17788,           0.0078665,            0.007228,            0.007228,            0.007228
                  86,            0.078281,             0.11651,           0.0023524,              0.4288,             0.33595,             0.28696,             0.11471,            0.078101,             0.17667,           0.0076762,            0.007195,            0.007195,            0.007195
                  87,            0.078181,             0.11708,            0.002631,             0.47881,             0.27641,             0.27746,             0.10855,            0.079163,             0.18464,           0.0091088,            0.007162,            0.007162,            0.007162
                  88,            0.078288,             0.11608,           0.0026199,             0.39974,             0.31521,             0.27045,             0.10604,            0.079624,             0.18765,           0.0076185,            0.007129,            0.007129,            0.007129
                  89,            0.078413,             0.11513,           0.0026493,              0.4098,             0.33118,             0.28641,             0.11189,            0.078761,             0.17866,           0.0059934,            0.007096,            0.007096,            0.007096
                  90,            0.078186,             0.11738,           0.0027734,              0.4354,             0.33157,             0.28427,              0.1123,            0.078738,             0.18261,           0.0078431,            0.007063,            0.007063,            0.007063
                  91,            0.078292,             0.11695,           0.0026532,             0.46036,             0.28649,              0.2736,             0.10975,            0.079071,             0.18296,            0.010734,             0.00703,             0.00703,             0.00703
                  92,            0.078196,             0.11895,           0.0026655,             0.48393,             0.30276,             0.29683,             0.12073,            0.079144,             0.18605,           0.0083976,            0.006997,            0.006997,            0.006997
                  93,            0.079106,             0.11936,           0.0030132,              0.4103,               0.323,             0.27481,             0.11014,            0.079245,             0.17849,           0.0077955,            0.006964,            0.006964,            0.006964
                  94,            0.078214,             0.11611,           0.0025897,             0.48082,             0.31575,             0.30101,             0.12031,             0.07927,             0.18894,            0.007267,            0.006931,            0.006931,            0.006931
                  95,            0.078063,             0.11657,           0.0024364,             0.43362,             0.31672,             0.28457,             0.11369,            0.079217,             0.18898,           0.0076084,            0.006898,            0.006898,            0.006898
                  96,            0.078541,             0.11808,           0.0024903,             0.46367,             0.32359,             0.30026,               0.118,            0.078695,             0.18067,           0.0076363,            0.006865,            0.006865,            0.006865
                  97,            0.078741,             0.11627,           0.0025867,             0.45405,             0.31087,             0.28897,             0.11659,            0.078637,             0.18219,           0.0074835,            0.006832,            0.006832,            0.006832
                  98,            0.077995,             0.11523,           0.0024973,              0.4392,             0.30823,             0.28868,             0.11554,            0.079412,             0.17947,           0.0080856,            0.006799,            0.006799,            0.006799
                  99,            0.078271,             0.11615,            0.002651,             0.45203,             0.31341,             0.29108,             0.11716,            0.079094,             0.18188,           0.0067971,            0.006766,            0.006766,            0.006766
                 100,            0.078065,             0.11692,           0.0026933,             0.44269,             0.30412,             0.27968,             0.11235,            0.079149,             0.18807,           0.0078501,            0.006733,            0.006733,            0.006733
                 101,            0.077881,             0.11592,           0.0024034,             0.39114,             0.32132,             0.27664,             0.10946,            0.079485,             0.18992,            0.010147,              0.0067,              0.0067,              0.0067
                 102,             0.07752,             0.11613,           0.0025369,             0.46247,             0.30281,             0.27954,             0.11008,            0.078997,             0.18505,           0.0083204,            0.006667,            0.006667,            0.006667
                 103,            0.077874,             0.11594,           0.0023767,              0.4442,             0.30962,             0.27384,              0.1082,            0.079599,             0.18762,           0.0078679,            0.006634,            0.006634,            0.006634
                 104,            0.077425,             0.11396,            0.002559,             0.42392,               0.305,             0.27185,             0.10803,            0.079838,             0.19107,            0.008046,            0.006601,            0.006601,            0.006601
                 105,            0.077388,              0.1166,           0.0024852,             0.43328,             0.31195,             0.27931,             0.11314,            0.079231,             0.18928,           0.0092485,            0.006568,            0.006568,            0.006568
                 106,            0.077774,             0.11593,           0.0024027,              0.4183,              0.3065,             0.27837,             0.11127,             0.07935,             0.18676,           0.0078032,            0.006535,            0.006535,            0.006535
                 107,            0.077653,             0.11613,           0.0027551,             0.46793,             0.30396,             0.28135,             0.11198,            0.079279,             0.18629,            0.008458,            0.006502,            0.006502,            0.006502
                 108,            0.078137,             0.11702,           0.0025899,             0.44541,             0.29163,             0.26646,             0.10391,            0.079216,             0.18762,           0.0082886,            0.006469,            0.006469,            0.006469
                 109,            0.077402,             0.11462,           0.0024214,             0.46034,             0.27094,             0.25486,             0.10212,            0.079858,             0.18931,           0.0083037,            0.006436,            0.006436,            0.006436
                 110,            0.077649,             0.11469,           0.0025152,             0.43255,              0.3045,              0.2735,             0.10791,             0.07913,             0.18836,           0.0080425,            0.006403,            0.006403,            0.006403
                 111,            0.076972,             0.11544,           0.0023231,             0.40059,             0.30357,             0.25656,             0.10246,             0.07918,             0.18739,            0.007564,             0.00637,             0.00637,             0.00637
                 112,            0.077397,             0.11583,            0.002472,             0.42279,             0.28832,             0.26379,              0.1059,            0.079134,             0.18916,           0.0088464,            0.006337,            0.006337,            0.006337
                 113,            0.077929,             0.11737,           0.0022773,             0.44007,             0.29758,             0.27352,             0.11137,            0.079739,             0.18599,           0.0083012,            0.006304,            0.006304,            0.006304
